<?xml version="1.0" encoding="utf-8"?>
<!-- Generator: Adobe Illustrator 24.2.0, SVG Export Plug-In . SVG Version: 6.00 Build 0)  -->
<svg version="1.1" id="svg2" xmlns="http://www.w3.org/2000/svg" xmlns:xlink="http://www.w3.org/1999/xlink" x="0px" y="0px"
	 viewBox="0 0 3491 896.8" style="enable-background:new 0 0 3491 896.8;" xml:space="preserve">
<style type="text/css">
	.st0{opacity:0.5261;}
	.st1{fill:url(#path2388_1_);}
</style>
<g id="g3846">
	<g id="path3532" class="st0">
		<path d="M1167.6,49.7c-111.7,15.2-214,68.1-307.4,128.7c-104.3,76.3-172.1,188.8-241.5,295.1c-74.2,107.4-151.4,217.1-258.8,294
			c-59.9,40-135.2,52-205.7,40.7c-34.4-2.9-73.7-8.1-104.6,8.2c7.7,15.8,27.5,4.8,40.8,7.6c99.4,9.9,205.4,7.5,295.6-40.6
			C493.9,723.7,573.9,626,643.6,526.5c69.9-102.1,120.6-220,215.2-303.1C931.3,159.2,1019.2,114,1111.3,85
			c23,17.6,27.5,48.8,46.5,69.8c123.1,200.5,259,396.7,433.3,556.5c89.5,76.5,201.6,134.3,321.3,135.9
			c94.9,0.7,185.5-42.6,255.4-104.7c33.7-21.2,78.6-13,108.7,10.9c44.5,28.1,85.1,70,140.4,74.4c65.2,6,121.5-34.1,183.1-47.1
			c75.9-11.6,140.2,43.7,214.2,47.8c59.7,5.4,117.5-14,176.6-18.6c43.1-5,87-3.1,129.3,6.5c102.6,14.8,209.5,29.8,311,0.9
			c6.2-1.6,16.1-13,5.6-15.6c-23.7,1.2-47.1,6.3-71,5.2c-110.7,2.5-219.2-30.2-329.9-24.8c-70.8,7.3-143.1,31.5-213.8,10.9
			c-60.6-17.9-120.8-50.5-185.9-40.1c-61.2,6.4-113.3,53.5-176.8,46.2c-60-8.9-98-63.1-152.2-85.2c-45.8-21.6-99.1-10.1-143,10.5
			c-41.9,19-77,49.4-115.5,73.9c-31.9,18.9-70.1,26.7-106.8,20.5c-131.9-10-250-84.5-340.9-176.8
			c-120.4-120.2-219.2-259.6-313.3-400.7C1247,178.3,1210,112.5,1170,49.8C1169.2,49.7,1168.5,49.7,1167.6,49.7L1167.6,49.7z"/>
	</g>
	
		<linearGradient id="path2388_1_" gradientUnits="userSpaceOnUse" x1="5268.96" y1="-340.5457" x2="1864.98" y2="-340.5457" gradientTransform="matrix(1 0 0 1 -1817.49 758.8199)">
		<stop  offset="0" style="stop-color:#0C73CF"/>
		<stop  offset="0.42" style="stop-color:#0C73CF"/>
		<stop  offset="0.48" style="stop-color:#E19417"/>
		<stop  offset="1" style="stop-color:#E19417"/>
	</linearGradient>
	<path id="path2388" class="st1" d="M1172,19.5c-111.7,15.2-214,68.1-307.5,128.6C760.2,224.5,692.5,337,623,443.3
		c-74.2,107.4-151.4,217.1-258.8,294c-59.9,40-135.2,52-205.7,40.7c-34.4-2.9-73.7-8.1-104.5,8.2c7.7,15.8,27.6,4.8,40.8,7.6
		c99.4,9.9,205.4,7.5,295.6-40.6c107.9-59.7,187.9-157.3,257.6-256.8c69.9-102.1,120.6-220,215.2-303.2
		c72.5-64.2,160.5-109.4,252.5-138.4c23,17.6,27.5,48.8,46.5,69.8c123.1,200.5,259,396.7,433.3,556.5
		c89.5,76.5,201.5,134.2,321.3,136c94.9,0.7,185.5-42.6,255.4-104.7c33.7-21.2,78.6-13,108.7,10.9c44.5,28.1,85.1,70,140.4,74.4
		c65.2,6,121.5-34.1,183.1-47.2c75.9-11.6,140.2,43.7,214.2,47.8c59.7,5.4,117.5-14,176.6-18.6c43.1-5,87-3.1,129.3,6.5
		c102.6,14.8,209.5,29.8,311,0.8c6.2-1.6,16.1-13,5.6-15.6c-23.7,1.2-47.1,6.3-71,5.2c-110.7,2.5-219.2-30.2-329.9-24.8
		c-70.8,7.3-143.1,31.5-213.8,10.9c-60.6-17.9-120.8-50.4-185.9-40.1c-61.2,6.4-113.3,53.5-176.8,46.2c-60-8.9-98-63.1-152.2-85.2
		c-45.8-21.5-99.1-10.1-143,10.5c-41.9,19-77,49.4-115.5,73.9c-31.9,18.9-70.1,26.7-106.8,20.5c-131.9-10-250-84.5-340.9-176.8
		C1484.8,491.5,1386.1,352,1292,210.9c-40.7-62.8-77.6-128.6-117.7-191.3C1173.5,19.5,1172.8,19.5,1172,19.5L1172,19.5z"/>
</g>
</svg>
